ST 558 Project 2
…
return(tibble_info)
}

get_country_info("germany")

# A tibble: 1 × 10
  Country_Name Capital Region Subregion        Area Population Car_Side_Driving
  <chr>        <chr>   <chr>  <chr>           <dbl>      <int> <chr>           
1 Germany      Berlin  Europe Western Europe 357114   83240525 right           
# ℹ 3 more variables: Independence <lgl>, Landlocked <lgl>, UN_Member <lgl>

get_country_info("all")

# A tibble: 250 × 10
   Country_Name      Capital Region Subregion   Area Population Car_Side_Driving
   <chr>             <chr>   <chr>  <chr>      <dbl>      <int> <chr>           
 1 Wallis and Futuna Mata-U… Ocean… Polynesia 1.42e2      11750 right           
 2 Iceland           Reykja… Europe Northern… 1.03e5     366425 right           
 3 Luxembourg        Luxemb… Europe Western … 2.59e3     632275 right           
 4 Mali              Bamako  Africa Western … 1.24e6   20250834 right           
 5 Comoros           Moroni  Africa Eastern … 1.86e3     869595 right           
 6 Australia         Canber… Ocean… Australi… 7.69e6   25687041 left            
 7 Estonia           Tallinn Europe Northern… 4.52e4    1331057 right           
 8 Canada            Ottawa  Ameri… North Am… 9.98e6   38005238 right           
 9 Belarus           Minsk   Europe Eastern … 2.08e5    9398861 right           
10 Guyana            George… Ameri… South Am… 2.15e5     786559 left            
# ℹ 240 more rows
# ℹ 3 more variables: Independence <lgl>, Landlocked <lgl>, UN_Member <lgl>

get_country_info("zambia")

# A tibble: 1 × 10
  Country_Name Capital Region Subregion        Area Population Car_Side_Driving
  <chr>        <chr>   <chr>  <chr>           <dbl>      <int> <chr>           
1 Zambia       Lusaka  Africa Eastern Africa 752612   18383956 left            
# ℹ 3 more variables: Independence <lgl>, Landlocked <lgl>, UN_Member <lgl>

get_country_info("all")

# A tibble: 250 × 10
   Country_Name      Capital Region Subregion   Area Population Car_Side_Driving
   <chr>             <chr>   <chr>  <chr>      <dbl>      <int> <chr>           
 1 Wallis and Futuna Mata-U… Ocean… Polynesia 1.42e2      11750 right           
 2 Iceland           Reykja… Europe Northern… 1.03e5     366425 right           
 3 Luxembourg        Luxemb… Europe Western … 2.59e3     632275 right           
 4 Mali              Bamako  Africa Western … 1.24e6   20250834 right           
 5 Comoros           Moroni  Africa Eastern … 1.86e3     869595 right           
 6 Australia         Canber… Ocean… Australi… 7.69e6   25687041 left            
 7 Estonia           Tallinn Europe Northern… 4.52e4    1331057 right           
 8 Canada            Ottawa  Ameri… North Am… 9.98e6   38005238 right           
 9 Belarus           Minsk   Europe Eastern … 2.08e5    9398861 right           
10 Guyana            George… Ameri… South Am… 2.15e5     786559 left            
# ℹ 240 more rows
# ℹ 3 more variables: Independence <lgl>, Landlocked <lgl>, UN_Member <lgl>

country <- get_country_info("all")
country

# A tibble: 250 × 10
   Country_Name      Capital Region Subregion   Area Population Car_Side_Driving
   <chr>             <chr>   <chr>  <chr>      <dbl>      <int> <chr>           
 1 Wallis and Futuna Mata-U… Ocean… Polynesia 1.42e2      11750 right           
 2 Iceland           Reykja… Europe Northern… 1.03e5     366425 right           
 3 Luxembourg        Luxemb… Europe Western … 2.59e3     632275 right           
 4 Mali              Bamako  Africa Western … 1.24e6   20250834 right           
 5 Comoros           Moroni  Africa Eastern … 1.86e3     869595 right           
 6 Australia         Canber… Ocean… Australi… 7.69e6   25687041 left            
 7 Estonia           Tallinn Europe Northern… 4.52e4    1331057 right           
 8 Canada            Ottawa  Ameri… North Am… 9.98e6   38005238 right           
 9 Belarus           Minsk   Europe Eastern … 2.08e5    9398861 right           
10 Guyana            George… Ameri… South Am… 2.15e5     786559 left            
# ℹ 240 more rows
# ℹ 3 more variables: Independence <lgl>, Landlocked <lgl>, UN_Member <lgl>
…
  arrange(Country_Name)

return(tibble_info)

}

get_region_info("asia")

# A tibble: 50 × 10
   Country_Name Capital      Region Subregion   Area Population Car_Side_Driving
   <chr>        <chr>        <chr>  <chr>      <dbl>      <int> <chr>           
 1 Afghanistan  Kabul        Asia   Southern… 6.52e5   40218234 right           
 2 Armenia      Yerevan      Asia   Western … 2.97e4    2963234 right           
 3 Azerbaijan   Baku         Asia   Western … 8.66e4   10110116 right           
 4 Bahrain      Manama       Asia   Western … 7.65e2    1701583 right           
 5 Bangladesh   Dhaka        Asia   Southern… 1.48e5  164689383 left            
 6 Bhutan       Thimphu      Asia   Southern… 3.84e4     771612 left            
 7 Brunei       Bandar Seri… Asia   South-Ea… 5.76e3     437483 left            
 8 Cambodia     Phnom Penh   Asia   South-Ea… 1.81e5   16718971 right           
 9 China        Beijing      Asia   Eastern … 9.71e6 1402112000 right           
10 Georgia      Tbilisi      Asia   Western … 6.97e4    3714000 right           
# ℹ 40 more rows
# ℹ 3 more variables: Independence <lgl>, Landlocked <lgl>, UN_Member <lgl>
…
  arrange(Country_Name)

return(tibble_info)
}
get_language_info("spanish")

# A tibble: 24 × 10
   Country_Name      Capital Region Subregion   Area Population Car_Side_Driving
   <chr>             <chr>   <chr>  <chr>      <dbl>      <int> <chr>           
 1 Argentina         Buenos… Ameri… South Am… 2.78e6   45376763 right           
 2 Belize            Belmop… Ameri… Central … 2.30e4     397621 right           
 3 Bolivia           Sucre   Ameri… South Am… 1.10e6   11673029 right           
 4 Chile             Santia… Ameri… South Am… 7.56e5   19116209 right           
 5 Colombia          Bogotá  Ameri… South Am… 1.14e6   50882884 right           
 6 Costa Rica        San Jo… Ameri… Central … 5.11e4    5094114 right           
 7 Cuba              Havana  Ameri… Caribbean 1.10e5   11326616 right           
 8 Dominican Republ… Santo … Ameri… Caribbean 4.87e4   10847904 right           
 9 Ecuador           Quito   Ameri… South Am… 2.77e5   17643060 right           
10 El Salvador       San Sa… Ameri… Central … 2.10e4    6486201 right           
# ℹ 14 more rows
# ℹ 3 more variables: Independence <lgl>, Landlocked <lgl>, UN_Member <lgl>
…
tibble_info <- tibble_info |>
  filter(Area >= min_area & Area <= max_area) |>
  arrange(Country_Name)

return(tibble_info)
}

get_area_info(0, 200)

# A tibble: 29 × 10
   Country_Name       Capital Region Subregion  Area Population Car_Side_Driving
   <chr>              <chr>   <chr>  <chr>     <dbl>      <int> <chr>           
 1 American Samoa     Pago P… Ocean… Polynesia   199      55197 right           
 2 Anguilla           The Va… Ameri… Caribbean    91      13452 left            
 3 Aruba              Oranje… Ameri… Caribbean   180     106766 right           
 4 Bermuda            Hamilt… Ameri… North Am…    54      63903 left            
 5 Bouvet Island      NULL    Antar… <NA>         49          0 right           
 6 British Indian Oc… Diego … Africa Eastern …    60       3000 right           
 7 British Virgin Is… Road T… Ameri… Caribbean   151      30237 left            
 8 Christmas Island   Flying… Ocean… Australi…   135       2072 left            
 9 Cocos (Keeling) I… West I… Ocean… Australi…    14        544 left            
10 Gibraltar          Gibral… Europe Southern…     6      33691 right           
# ℹ 19 more rows
# ℹ 3 more variables: Independence <lgl>, Landlocked <lgl>, UN_Member <lgl>
…
wrapper_function("name", "france")

# A tibble: 1 × 10
  Country_Name Capital Region Subregion        Area Population Car_Side_Driving
  <chr>        <chr>   <chr>  <chr>           <dbl>      <int> <chr>           
1 France       Paris   Europe Western Europe 551695   67391582 right           
# ℹ 3 more variables: Independence <lgl>, Landlocked <lgl>, UN_Member <lgl>

wrapper_function("region", "americas")

# A tibble: 56 × 10
   Country_Name      Capital Region Subregion   Area Population Car_Side_Driving
   <chr>             <chr>   <chr>  <chr>      <dbl>      <int> <chr>           
 1 Anguilla          The Va… Ameri… Caribbean 9.1 e1      13452 left            
 2 Antigua and Barb… Saint … Ameri… Caribbean 4.42e2      97928 left            
 3 Argentina         Buenos… Ameri… South Am… 2.78e6   45376763 right           
 4 Aruba             Oranje… Ameri… Caribbean 1.8 e2     106766 right           
 5 Bahamas           Nassau  Ameri… Caribbean 1.39e4     393248 left            
 6 Barbados          Bridge… Ameri… Caribbean 4.3 e2     287371 left            
 7 Belize            Belmop… Ameri… Central … 2.30e4     397621 right           
 8 Bermuda           Hamilt… Ameri… North Am… 5.4 e1      63903 left            
 9 Bolivia           Sucre   Ameri… South Am… 1.10e6   11673029 right           
10 Brazil            Brasíl… Ameri… South Am… 8.52e6  212559409 right           
# ℹ 46 more rows
# ℹ 3 more variables: Independence <lgl>, Landlocked <lgl>, UN_Member <lgl>
…
install.packages("treemapify")

Installing package into 'C:/Users/Taylor/AppData/Local/R/win-library/4.3'
(as 'lib' is unspecified)

Error in contrib.url(repos, "source"): trying to use CRAN without setting a mirror

library(treemapify)

Warning: package 'treemapify' was built under R version 4.3.3

data_input <- wrapper_function("name", "all")
data_input

# A tibble: 250 × 10
   Country_Name      Capital Region Subregion   Area Population Car_Side_Driving
   <chr>             <chr>   <chr>  <chr>      <dbl>      <int> <chr>           
 1 Wallis and Futuna Mata-U… Ocean… Polynesia 1.42e2      11750 right           
 2 Iceland           Reykja… Europe Northern… 1.03e5     366425 right           
 3 Luxembourg        Luxemb… Europe Western … 2.59e3     632275 right           
 4 Mali              Bamako  Africa Western … 1.24e6   20250834 right           
 5 Comoros           Moroni  Africa Eastern … 1.86e3     869595 right           
 6 Australia         Canber… Ocean… Australi… 7.69e6   25687041 left            
 7 Estonia           Tallinn Europe Northern… 4.52e4    1331057 right           
 8 Canada            Ottawa  Ameri… North Am… 9.98e6   38005238 right           
 9 Belarus           Minsk   Europe Eastern … 2.08e5    9398861 right           
10 Guyana            George… Ameri… South Am… 2.15e5     786559 left            
# ℹ 240 more rows
# ℹ 3 more variables: Independence <lgl>, Landlocked <lgl>, UN_Member <lgl>
…
